
tower 0 eta0 -4.95 phi0 -2.50346
tower 1 eta0 -4.95 phi0 -2.01258
tower 2 eta0 -4.95 phi0 -1.12901
tower 3 eta0 -4.95 phi0 -0.736311
tower 4 eta0 -4.95 phi0 -0.147262
tower 5 eta0 -4.95 phi0 0.441786
tower 6 eta0 -4.95 phi0 0.539961
tower 7 eta0 -4.95 phi0 0.638136
tower 8 eta0 -4.95 phi0 0.736311
tower 9 eta0 -4.95 phi0 1.03084
tower 10 eta0 -4.95 phi0 1.12901
tower 11 eta0 -4.95 phi0 1.91441
tower 12 eta0 -4.95 phi0 2.01258
tower 13 eta0 -4.95 phi0 2.11076
tower 14 eta0 -4.95 phi0 2.30711
tower 15 eta0 -4.95 phi0 2.40528
tower 16 eta0 -4.85 phi0 -3.09251
tower 17 eta0 -4.85 phi0 -2.99433
tower 18 eta0 -4.85 phi0 -2.89616
tower 19 eta0 -4.85 phi0 -2.79798
tower 20 eta0 -4.85 phi0 -2.69981
tower 21 eta0 -4.85 phi0 -2.60163
tower 22 eta0 -4.85 phi0 -2.50346
tower 23 eta0 -4.85 phi0 -2.40528
tower 24 eta0 -4.85 phi0 -2.20893
tower 25 eta0 -4.85 phi0 -2.11076
tower 26 eta0 -4.85 phi0 -2.01258
tower 27 eta0 -4.85 phi0 -1.61988
tower 28 eta0 -4.85 phi0 -1.52171
tower 29 eta0 -4.85 phi0 -1.22718
tower 30 eta0 -4.85 phi0 -1.12901
tower 31 eta0 -4.85 phi0 -1.03084
tower 32 eta0 -4.85 phi0 -0.93266
tower 33 eta0 -4.85 phi0 -0.834486
tower 34 eta0 -4.85 phi0 -0.736311
tower 35 eta0 -4.85 phi0 -0.638136
tower 36 eta0 -4.85 phi0 -0.539961
tower 37 eta0 -4.85 phi0 -0.441786
tower 38 eta0 -4.85 phi0 -0.343612
tower 39 eta0 -4.85 phi0 -0.245437
tower 40 eta0 -4.85 phi0 -0.147262
tower 41 eta0 -4.85 phi0 -0.0490874
tower 42 eta0 -4.85 phi0 0.0490874
tower 43 eta0 -4.85 phi0 0.147262
tower 44 eta0 -4.85 phi0 0.245437
tower 45 eta0 -4.85 phi0 0.343612
tower 46 eta0 -4.85 phi0 0.441786
tower 47 eta0 -4.85 phi0 0.539961
tower 48 eta0 -4.85 phi0 0.638136
tower 49 eta0 -4.85 phi0 0.736311
tower 50 eta0 -4.85 phi0 0.834486
tower 51 eta0 -4.85 phi0 0.93266
tower 52 eta0 -4.85 phi0 1.03084
tower 53 eta0 -4.85 phi0 1.12901
tower 54 eta0 -4.85 phi0 1.22718
tower 55 eta0 -4.85 phi0 1.32536
tower 56 eta0 -4.85 phi0 1.42353
tower 57 eta0 -4.85 phi0 1.52171
tower 58 eta0 -4.85 phi0 1.61988
tower 59 eta0 -4.85 phi0 1.71806
tower 60 eta0 -4.85 phi0 1.81623
tower 61 eta0 -4.85 phi0 1.91441
tower 62 eta0 -4.85 phi0 2.01258
tower 63 eta0 -4.85 phi0 2.11076
tower 64 eta0 -4.85 phi0 2.20893
tower 65 eta0 -4.85 phi0 2.30711
tower 66 eta0 -4.85 phi0 2.40528
tower 67 eta0 -4.85 phi0 2.50346
tower 68 eta0 -4.85 phi0 2.60163
tower 69 eta0 -4.85 phi0 2.69981
tower 70 eta0 -4.85 phi0 2.79798
tower 71 eta0 -4.85 phi0 2.89616
tower 72 eta0 -4.85 phi0 2.99433
tower 73 eta0 -4.85 phi0 3.09251
tower 74 eta0 -4.75 phi0 -3.09251
tower 75 eta0 -4.75 phi0 -2.99433
tower 76 eta0 -4.75 phi0 -2.89616
tower 77 eta0 -4.75 phi0 -2.79798
tower 78 eta0 -4.75 phi0 -2.69981
tower 79 eta0 -4.75 phi0 -2.60163
tower 80 eta0 -4.75 phi0 -2.50346
tower 81 eta0 -4.75 phi0 -2.40528
tower 82 eta0 -4.75 phi0 -2.30711
tower 83 eta0 -4.75 phi0 -2.20893
tower 84 eta0 -4.75 phi0 -2.11076
tower 85 eta0 -4.75 phi0 -2.01258
tower 86 eta0 -4.75 phi0 -1.91441
tower 87 eta0 -4.75 phi0 -1.81623
tower 88 eta0 -4.75 phi0 -1.71806
tower 89 eta0 -4.75 phi0 -1.61988
tower 90 eta0 -4.75 phi0 -1.52171
tower 91 eta0 -4.75 phi0 -1.42353
tower 92 eta0 -4.75 phi0 -1.32536
tower 93 eta0 -4.75 phi0 -1.22718
tower 94 eta0 -4.75 phi0 -1.12901
tower 95 eta0 -4.75 phi0 -1.03084
tower 96 eta0 -4.75 phi0 -0.93266
tower 97 eta0 -4.75 phi0 -0.834486
tower 98 eta0 -4.75 phi0 -0.736311
tower 99 eta0 -4.75 phi0 -0.638136
tower 100 eta0 -4.75 phi0 -0.539961
tower 101 eta0 -4.75 phi0 -0.441786
tower 102 eta0 -4.75 phi0 -0.343612
tower 103 eta0 -4.75 phi0 -0.245437
tower 104 eta0 -4.75 phi0 -0.147262
tower 105 eta0 -4.75 phi0 -0.0490874
tower 106 eta0 -4.75 phi0 0.0490874
tower 107 eta0 -4.75 phi0 0.147262
tower 108 eta0 -4.75 phi0 0.245437
tower 109 eta0 -4.75 phi0 0.343612
tower 110 eta0 -4.75 phi0 0.441786
tower 111 eta0 -4.75 phi0 0.539961
tower 112 eta0 -4.75 phi0 0.638136
tower 113 eta0 -4.75 phi0 0.736311
tower 114 eta0 -4.75 phi0 0.834486
tower 115 eta0 -4.75 phi0 0.93266
tower 116 eta0 -4.75 phi0 1.03084
tower 117 eta0 -4.75 phi0 1.12901
tower 118 eta0 -4.75 phi0 1.22718
tower 119 eta0 -4.75 phi0 1.32536
tower 120 eta0 -4.75 phi0 1.42353
tower 121 eta0 -4.75 phi0 1.52171
tower 122 eta0 -4.75 phi0 1.61988
tower 123 eta0 -4.75 phi0 1.71806
tower 124 eta0 -4.75 phi0 1.81623
tower 125 eta0 -4.75 phi0 1.91441
tower 126 eta0 -4.75 phi0 2.01258
tower 127 eta0 -4.75 phi0 2.11076
tower 128 eta0 -4.75 phi0 2.20893
tower 129 eta0 -4.75 phi0 2.30711
tower 130 eta0 -4.75 phi0 2.40528
tower 131 eta0 -4.75 phi0 2.50346
tower 132 eta0 -4.75 phi0 2.60163
tower 133 eta0 -4.75 phi0 2.69981
tower 134 eta0 -4.75 phi0 2.79798
tower 135 eta0 -4.75 phi0 2.89616
tower 136 eta0 -4.75 phi0 2.99433
tower 137 eta0 -4.75 phi0 3.09251
tower 138 eta0 -4.65 phi0 -3.09251
tower 139 eta0 -4.65 phi0 -2.99433
tower 140 eta0 -4.65 phi0 -2.89616
tower 141 eta0 -4.65 phi0 -2.79798
tower 142 eta0 -4.65 phi0 -2.69981
tower 143 eta0 -4.65 phi0 -2.60163
tower 144 eta0 -4.65 phi0 -2.50346
tower 145 eta0 -4.65 phi0 -2.40528
tower 146 eta0 -4.65 phi0 -2.30711
tower 147 eta0 -4.65 phi0 -2.20893
tower 148 eta0 -4.65 phi0 -2.11076
tower 149 eta0 -4.65 phi0 -2.01258
tower 150 eta0 -4.65 phi0 -1.91441
tower 151 eta0 -4.65 phi0 -1.81623
tower 152 eta0 -4.65 phi0 -1.71806
tower 153 eta0 -4.65 phi0 -1.61988
tower 154 eta0 -4.65 phi0 -1.52171
tower 155 eta0 -4.65 phi0 -1.42353
tower 156 eta0 -4.65 phi0 -1.32536
tower 157 eta0 -4.65 phi0 -1.22718
tower 158 eta0 -4.65 phi0 -1.12901
tower 159 eta0 -4.65 phi0 -1.03084
tower 160 eta0 -4.65 phi0 -0.93266
tower 161 eta0 -4.65 phi0 -0.834486
tower 162 eta0 -4.65 phi0 -0.736311
tower 163 eta0 -4.65 phi0 -0.638136
tower 164 eta0 -4.65 phi0 -0.539961
tower 165 eta0 -4.65 phi0 -0.441786
tower 166 eta0 -4.65 phi0 -0.343612
tower 167 eta0 -4.65 phi0 -0.245437
tower 168 eta0 -4.65 phi0 -0.147262
tower 169 eta0 -4.65 phi0 -0.0490874
tower 170 eta0 -4.65 phi0 0.0490874
tower 171 eta0 -4.65 phi0 0.147262
tower 172 eta0 -4.65 phi0 0.245437
tower 173 eta0 -4.65 phi0 0.343612
tower 174 eta0 -4.65 phi0 0.441786
tower 175 eta0 -4.65 phi0 0.539961
tower 176 eta0 -4.65 phi0 0.638136
tower 177 eta0 -4.65 phi0 0.736311
tower 178 eta0 -4.65 phi0 0.834486
tower 179 eta0 -4.65 phi0 0.93266
tower 180 eta0 -4.65 phi0 1.03084
tower 181 eta0 -4.65 phi0 1.12901
tower 182 eta0 -4.65 phi0 1.22718
tower 183 eta0 -4.65 phi0 1.32536
tower 184 eta0 -4.65 phi0 1.42353
tower 185 eta0 -4.65 phi0 1.52171
tower 186 eta0 -4.65 phi0 1.61988
tower 187 eta0 -4.65 phi0 1.71806
tower 188 eta0 -4.65 phi0 1.81623
tower 189 eta0 -4.65 phi0 1.91441
tower 190 eta0 -4.65 phi0 2.01258
tower 191 eta0 -4.65 phi0 2.11076
tower 192 eta0 -4.65 phi0 2.20893
tower 193 eta0 -4.65 phi0 2.30711
tower 194 eta0 -4.65 phi0 2.40528
tower 195 eta0 -4.65 phi0 2.50346
tower 196 eta0 -4.65 phi0 2.60163
tower 197 eta0 -4.65 phi0 2.69981
tower 198 eta0 -4.65 phi0 2.79798
tower 199 eta0 -4.65 phi0 2.89616
tower 200 eta0 -4.65 phi0 2.99433
tower 201 eta0 -4.65 phi0 3.09251
tower 202 eta0 -4.55 phi0 -3.09251
tower 203 eta0 -4.55 phi0 -2.99433
tower 204 eta0 -4.55 phi0 -2.89616
tower 205 eta0 -4.55 phi0 -2.79798
tower 206 eta0 -4.55 phi0 -2.69981
tower 207 eta0 -4.55 phi0 -2.60163
tower 208 eta0 -4.55 phi0 -2.50346
tower 209 eta0 -4.55 phi0 -2.40528
tower 210 eta0 -4.55 phi0 -2.30711
tower 211 eta0 -4.55 phi0 -2.20893
tower 212 eta0 -4.55 phi0 -2.11076
tower 213 eta0 -4.55 phi0 -2.01258
tower 214 eta0 -4.55 phi0 -1.91441
tower 215 eta0 -4.55 phi0 -1.81623
tower 216 eta0 -4.55 phi0 -1.71806
tower 217 eta0 -4.55 phi0 -1.61988
tower 218 eta0 -4.55 phi0 -1.52171
tower 219 eta0 -4.55 phi0 -1.42353
tower 220 eta0 -4.55 phi0 -1.32536
tower 221 eta0 -4.55 phi0 -1.22718
tower 222 eta0 -4.55 phi0 -1.12901
tower 223 eta0 -4.55 phi0 -1.03084
tower 224 eta0 -4.55 phi0 -0.93266
tower 225 eta0 -4.55 phi0 -0.834486
tower 226 eta0 -4.55 phi0 -0.736311
tower 227 eta0 -4.55 phi0 -0.638136
tower 228 eta0 -4.55 phi0 -0.539961
tower 229 eta0 -4.55 phi0 -0.441786
tower 230 eta0 -4.55 phi0 -0.343612
tower 231 eta0 -4.55 phi0 -0.245437
tower 232 eta0 -4.55 phi0 -0.147262
tower 233 eta0 -4.55 phi0 -0.0490874
tower 234 eta0 -4.55 phi0 0.0490874
tower 235 eta0 -4.55 phi0 0.147262
tower 236 eta0 -4.55 phi0 0.245437
tower 237 eta0 -4.55 phi0 0.343612
tower 238 eta0 -4.55 phi0 0.441786
tower 239 eta0 -4.55 phi0 0.539961
tower 240 eta0 -4.55 phi0 0.638136
tower 241 eta0 -4.55 phi0 0.736311
tower 242 eta0 -4.55 phi0 0.834486
tower 243 eta0 -4.55 phi0 0.93266
tower 244 eta0 -4.55 phi0 1.03084
tower 245 eta0 -4.55 phi0 1.12901
tower 246 eta0 -4.55 phi0 1.22718
tower 247 eta0 -4.55 phi0 1.32536
tower 248 eta0 -4.55 phi0 1.42353
tower 249 eta0 -4.55 phi0 1.52171
tower 250 eta0 -4.55 phi0 1.61988
tower 251 eta0 -4.55 phi0 1.71806
tower 252 eta0 -4.55 phi0 1.81623
tower 253 eta0 -4.55 phi0 1.91441
tower 254 eta0 -4.55 phi0 2.01258
tower 255 eta0 -4.55 phi0 2.11076
tower 256 eta0 -4.55 phi0 2.20893
tower 257 eta0 -4.55 phi0 2.30711
tower 258 eta0 -4.55 phi0 2.40528
tower 259 eta0 -4.55 phi0 2.50346
tower 260 eta0 -4.55 phi0 2.60163
tower 261 eta0 -4.55 phi0 2.69981
tower 262 eta0 -4.55 phi0 2.79798
tower 263 eta0 -4.55 phi0 2.89616
tower 264 eta0 -4.55 phi0 2.99433
tower 265 eta0 -4.55 phi0 3.09251
tower 266 eta0 -4.45 phi0 -3.09251
tower 267 eta0 -4.45 phi0 -2.99433
tower 268 eta0 -4.45 phi0 -2.89616
tower 269 eta0 -4.45 phi0 -2.79798
tower 270 eta0 -4.45 phi0 -2.69981
tower 271 eta0 -4.45 phi0 -2.60163
tower 272 eta0 -4.45 phi0 -2.50346
tower 273 eta0 -4.45 phi0 -2.40528
tower 274 eta0 -4.45 phi0 -2.30711
tower 275 eta0 -4.45 phi0 -2.20893
tower 276 eta0 -4.45 phi0 -2.11076
tower 277 eta0 -4.45 phi0 -2.01258
tower 278 eta0 -4.45 phi0 -1.91441
tower 279 eta0 -4.45 phi0 -1.81623
tower 280 eta0 -4.45 phi0 -1.71806
tower 281 eta0 -4.45 phi0 -1.61988
tower 282 eta0 -4.45 phi0 -1.52171
tower 283 eta0 -4.45 phi0 -1.42353
tower 284 eta0 -4.45 phi0 -1.32536
tower 285 eta0 -4.45 phi0 -1.22718
tower 286 eta0 -4.45 phi0 -1.12901
tower 287 eta0 -4.45 phi0 -1.03084
tower 288 eta0 -4.45 phi0 -0.93266
tower 289 eta0 -4.45 phi0 -0.834486
tower 290 eta0 -4.45 phi0 -0.736311
tower 291 eta0 -4.45 phi0 -0.638136
tower 292 eta0 -4.45 phi0 -0.539961
tower 293 eta0 -4.45 phi0 -0.441786
tower 294 eta0 -4.45 phi0 -0.343612
tower 295 eta0 -4.45 phi0 -0.245437
tower 296 eta0 -4.45 phi0 -0.147262
tower 297 eta0 -4.45 phi0 -0.0490874
tower 298 eta0 -4.45 phi0 0.0490874
tower 299 eta0 -4.45 phi0 0.147262
tower 300 eta0 -4.45 phi0 0.245437
tower 301 eta0 -4.45 phi0 0.343612
tower 302 eta0 -4.45 phi0 0.441786
tower 303 eta0 -4.45 phi0 0.539961
tower 304 eta0 -4.45 phi0 0.638136
tower 305 eta0 -4.45 phi0 0.736311
tower 306 eta0 -4.45 phi0 0.834486
tower 307 eta0 -4.45 phi0 0.93266
tower 308 eta0 -4.45 phi0 1.03084
tower 309 eta0 -4.45 phi0 1.12901
tower 310 eta0 -4.45 phi0 1.22718
tower 311 eta0 -4.45 phi0 1.32536
tower 312 eta0 -4.45 phi0 1.42353
tower 313 eta0 -4.45 phi0 1.52171
tower 314 eta0 -4.45 phi0 1.61988
tower 315 eta0 -4.45 phi0 1.71806
tower 316 eta0 -4.45 phi0 1.81623
tower 317 eta0 -4.45 phi0 1.91441
tower 318 eta0 -4.45 phi0 2.01258
tower 319 eta0 -4.45 phi0 2.11076
tower 320 eta0 -4.45 phi0 2.20893
tower 321 eta0 -4.45 phi0 2.30711
tower 322 eta0 -4.45 phi0 2.40528
tower 323 eta0 -4.45 phi0 2.50346
tower 324 eta0 -4.45 phi0 2.60163
tower 325 eta0 -4.45 phi0 2.69981
tower 326 eta0 -4.45 phi0 2.79798
tower 327 eta0 -4.45 phi0 2.89616
tower 328 eta0 -4.45 phi0 2.99433
tower 329 eta0 -4.45 phi0 3.09251
tower 330 eta0 -4.35 phi0 -3.09251
tower 331 eta0 -4.35 phi0 -2.99433
tower 332 eta0 -4.35 phi0 -2.89616
tower 333 eta0 -4.35 phi0 -2.79798
tower 334 eta0 -4.35 phi0 -2.69981
tower 335 eta0 -4.35 phi0 -2.60163
tower 336 eta0 -4.35 phi0 -2.50346
tower 337 eta0 -4.35 phi0 -2.40528
tower 338 eta0 -4.35 phi0 -2.30711
tower 339 eta0 -4.35 phi0 -2.20893
tower 340 eta0 -4.35 phi0 -2.11076
tower 341 eta0 -4.35 phi0 -2.01258
tower 342 eta0 -4.35 phi0 -1.91441
tower 343 eta0 -4.35 phi0 -1.81623
tower 344 eta0 -4.35 phi0 -1.71806
tower 345 eta0 -4.35 phi0 -1.61988
tower 346 eta0 -4.35 phi0 -1.52171
tower 347 eta0 -4.35 phi0 -1.42353
tower 348 eta0 -4.35 phi0 -1.32536
tower 349 eta0 -4.35 phi0 -1.22718
tower 350 eta0 -4.35 phi0 -1.12901
tower 351 eta0 -4.35 phi0 -1.03084
tower 352 eta0 -4.35 phi0 -0.93266
tower 353 eta0 -4.35 phi0 -0.834486
tower 354 eta0 -4.35 phi0 -0.736311
tower 355 eta0 -4.35 phi0 -0.638136
tower 356 eta0 -4.35 phi0 -0.539961
tower 357 eta0 -4.35 phi0 -0.441786
tower 358 eta0 -4.35 phi0 -0.343612
tower 359 eta0 -4.35 phi0 -0.245437
tower 360 eta0 -4.35 phi0 -0.147262
tower 361 eta0 -4.35 phi0 -0.0490874
tower 362 eta0 -4.35 phi0 0.0490874
tower 363 eta0 -4.35 phi0 0.147262
tower 364 eta0 -4.35 phi0 0.245437
tower 365 eta0 -4.35 phi0 0.343612
tower 366 eta0 -4.35 phi0 0.441786
tower 367 eta0 -4.35 phi0 0.539961
tower 368 eta0 -4.35 phi0 0.638136
tower 369 eta0 -4.35 phi0 0.736311
tower 370 eta0 -4.35 phi0 0.834486
tower 371 eta0 -4.35 phi0 0.93266
tower 372 eta0 -4.35 phi0 1.03084
tower 373 eta0 -4.35 phi0 1.12901
tower 374 eta0 -4.35 phi0 1.22718
tower 375 eta0 -4.35 phi0 1.32536
tower 376 eta0 -4.35 phi0 1.42353
tower 377 eta0 -4.35 phi0 1.52171
tower 378 eta0 -4.35 phi0 1.61988
tower 379 eta0 -4.35 phi0 1.71806
tower 380 eta0 -4.35 phi0 1.81623
tower 381 eta0 -4.35 phi0 1.91441
tower 382 eta0 -4.35 phi0 2.01258
tower 383 eta0 -4.35 phi0 2.11076
tower 384 eta0 -4.35 phi0 2.20893
tower 385 eta0 -4.35 phi0 2.30711
tower 386 eta0 -4.35 phi0 2.40528
tower 387 eta0 -4.35 phi0 2.50346
tower 388 eta0 -4.35 phi0 2.60163
tower 389 eta0 -4.35 phi0 2.69981
tower 390 eta0 -4.35 phi0 2.79798
tower 391 eta0 -4.35 phi0 2.89616
tower 392 eta0 -4.35 phi0 2.99433
tower 393 eta0 -4.35 phi0 3.09251
tower 394 eta0 -4.25 phi0 -3.09251
tower 395 eta0 -4.25 phi0 -2.99433
tower 396 eta0 -4.25 phi0 -2.89616
tower 397 eta0 -4.25 phi0 -2.79798
tower 398 eta0 -4.25 phi0 -2.69981
tower 399 eta0 -4.25 phi0 -2.60163
tower 400 eta0 -4.25 phi0 -2.50346
tower 401 eta0 -4.25 phi0 -2.40528
tower 402 eta0 -4.25 phi0 -2.30711
tower 403 eta0 -4.25 phi0 -2.20893
tower 404 eta0 -4.25 phi0 -2.11076
tower 405 eta0 -4.25 phi0 -2.01258
tower 406 eta0 -4.25 phi0 -1.91441
tower 407 eta0 -4.25 phi0 -1.81623
tower 408 eta0 -4.25 phi0 -1.71806
tower 409 eta0 -4.25 phi0 -1.61988
tower 410 eta0 -4.25 phi0 -1.52171
tower 411 eta0 -4.25 phi0 -1.42353
tower 412 eta0 -4.25 phi0 -1.32536
tower 413 eta0 -4.25 phi0 -1.22718
tower 414 eta0 -4.25 phi0 -1.12901
tower 415 eta0 -4.25 phi0 -1.03084
tower 416 eta0 -4.25 phi0 -0.93266
tower 417 eta0 -4.25 phi0 -0.834486
tower 418 eta0 -4.25 phi0 -0.736311
tower 419 eta0 -4.25 phi0 -0.638136
tower 420 eta0 -4.25 phi0 -0.539961
tower 421 eta0 -4.25 phi0 -0.441786
tower 422 eta0 -4.25 phi0 -0.343612
tower 423 eta0 -4.25 phi0 -0.245437
tower 424 eta0 -4.25 phi0 -0.147262
tower 425 eta0 -4.25 phi0 -0.0490874
tower 426 eta0 -4.25 phi0 0.0490874
tower 427 eta0 -4.25 phi0 0.147262
tower 428 eta0 -4.25 phi0 0.245437
tower 429 eta0 -4.25 phi0 0.343612
tower 430 eta0 -4.25 phi0 0.441786
tower 431 eta0 -4.25 phi0 0.539961
tower 432 eta0 -4.25 phi0 0.638136
tower 433 eta0 -4.25 phi0 0.736311
tower 434 eta0 -4.25 phi0 0.834486
tower 435 eta0 -4.25 phi0 0.93266
tower 436 eta0 -4.25 phi0 1.03084
tower 437 eta0 -4.25 phi0 1.12901
tower 438 eta0 -4.25 phi0 1.22718
tower 439 eta0 -4.25 phi0 1.32536
tower 440 eta0 -4.25 phi0 1.42353
tower 441 eta0 -4.25 phi0 1.52171
tower 442 eta0 -4.25 phi0 1.61988
tower 443 eta0 -4.25 phi0 1.71806
tower 444 eta0 -4.25 phi0 1.81623
tower 445 eta0 -4.25 phi0 1.91441
tower 446 eta0 -4.25 phi0 2.01258
tower 447 eta0 -4.25 phi0 2.11076
tower 448 eta0 -4.25 phi0 2.20893
tower 449 eta0 -4.25 phi0 2.30711
tower 450 eta0 -4.25 phi0 2.40528
tower 451 eta0 -4.25 phi0 2.50346
tower 452 eta0 -4.25 phi0 2.60163
tower 453 eta0 -4.25 phi0 2.69981
tower 454 eta0 -4.25 phi0 2.79798
tower 455 eta0 -4.25 phi0 2.89616
tower 456 eta0 -4.25 phi0 2.99433
tower 457 eta0 -4.25 phi0 3.09251
tower 458 eta0 -4.15 phi0 -3.09251
tower 459 eta0 -4.15 phi0 -2.99433
tower 460 eta0 -4.15 phi0 -2.89616
tower 461 eta0 -4.15 phi0 -2.79798
tower 462 eta0 -4.15 phi0 -2.69981
tower 463 eta0 -4.15 phi0 -2.60163
tower 464 eta0 -4.15 phi0 -2.50346
tower 465 eta0 -4.15 phi0 -2.40528
tower 466 eta0 -4.15 phi0 -2.30711
tower 467 eta0 -4.15 phi0 -2.20893
tower 468 eta0 -4.15 phi0 -2.11076
tower 469 eta0 -4.15 phi0 -2.01258
tower 470 eta0 -4.15 phi0 -1.91441
tower 471 eta0 -4.15 phi0 -1.81623
tower 472 eta0 -4.15 phi0 -1.71806
tower 473 eta0 -4.15 phi0 -1.61988
tower 474 eta0 -4.15 phi0 -1.52171
tower 475 eta0 -4.15 phi0 -1.42353
tower 476 eta0 -4.15 phi0 -1.32536
tower 477 eta0 -4.15 phi0 -1.22718
tower 478 eta0 -4.15 phi0 -1.12901
tower 479 eta0 -4.15 phi0 -1.03084
tower 480 eta0 -4.15 phi0 -0.93266
tower 481 eta0 -4.15 phi0 -0.834486
tower 482 eta0 -4.15 phi0 -0.736311
tower 483 eta0 -4.15 phi0 -0.638136
tower 484 eta0 -4.15 phi0 -0.539961
tower 485 eta0 -4.15 phi0 -0.441786
tower 486 eta0 -4.15 phi0 -0.343612
tower 487 eta0 -4.15 phi0 -0.245437
tower 488 eta0 -4.15 phi0 -0.147262
tower 489 eta0 -4.15 phi0 -0.0490874
tower 490 eta0 -4.15 phi0 0.0490874
tower 491 eta0 -4.15 phi0 0.147262
tower 492 eta0 -4.15 phi0 0.245437
tower 493 eta0 -4.15 phi0 0.343612
tower 494 eta0 -4.15 phi0 0.441786
tower 495 eta0 -4.15 phi0 0.539961
tower 496 eta0 -4.15 phi0 0.638136
tower 497 eta0 -4.15 phi0 0.736311
tower 498 eta0 -4.15 phi0 0.834486
tower 499 eta0 -4.15 phi0 0.93266
tower 500 eta0 -4.15 phi0 1.03084
tower 501 eta0 -4.15 phi0 1.12901
tower 502 eta0 -4.15 phi0 1.22718
tower 503 eta0 -4.15 phi0 1.32536
tower 504 eta0 -4.15 phi0 1.42353
tower 505 eta0 -4.15 phi0 1.52171
tower 506 eta0 -4.15 phi0 1.61988
tower 507 eta0 -4.15 phi0 1.71806
tower 508 eta0 -4.15 phi0 1.81623
tower 509 eta0 -4.15 phi0 1.91441
tower 510 eta0 -4.15 phi0 2.01258
tower 511 eta0 -4.15 phi0 2.11076
tower 512 eta0 -4.15 phi0 2.20893
tower 513 eta0 -4.15 phi0 2.30711
tower 514 eta0 -4.15 phi0 2.40528
tower 515 eta0 -4.15 phi0 2.50346
tower 516 eta0 -4.15 phi0 2.60163
tower 517 eta0 -4.15 phi0 2.69981
tower 518 eta0 -4.15 phi0 2.79798
tower 519 eta0 -4.15 phi0 2.89616
tower 520 eta0 -4.15 phi0 2.99433
tower 521 eta0 -4.15 phi0 3.09251
tower 522 eta0 -4.05 phi0 -3.09251
tower 523 eta0 -4.05 phi0 -2.99433
tower 524 eta0 -4.05 phi0 -2.89616
tower 525 eta0 -4.05 phi0 -2.79798
tower 526 eta0 -4.05 phi0 -2.69981
tower 527 eta0 -4.05 phi0 -2.60163
tower 528 eta0 -4.05 phi0 -2.50346
tower 529 eta0 -4.05 phi0 -2.40528
tower 530 eta0 -4.05 phi0 -2.30711
tower 531 eta0 -4.05 phi0 -2.20893
tower 532 eta0 -4.05 phi0 -2.11076
tower 533 eta0 -4.05 phi0 -2.01258
tower 534 eta0 -4.05 phi0 -1.91441
tower 535 eta0 -4.05 phi0 -1.81623
tower 536 eta0 -4.05 phi0 -1.71806
tower 537 eta0 -4.05 phi0 -1.61988
tower 538 eta0 -4.05 phi0 -1.52171
tower 539 eta0 -4.05 phi0 -1.42353
tower 540 eta0 -4.05 phi0 -1.32536
tower 541 eta0 -4.05 phi0 -1.22718
tower 542 eta0 -4.05 phi0 -1.12901
tower 543 eta0 -4.05 phi0 -1.03084
tower 544 eta0 -4.05 phi0 -0.93266
tower 545 eta0 -4.05 phi0 -0.834486
tower 546 eta0 -4.05 phi0 -0.736311
tower 547 eta0 -4.05 phi0 -0.638136
tower 548 eta0 -4.05 phi0 -0.539961
tower 549 eta0 -4.05 phi0 -0.441786
tower 550 eta0 -4.05 phi0 -0.343612
tower 551 eta0 -4.05 phi0 -0.245437
tower 552 eta0 -4.05 phi0 -0.147262
tower 553 eta0 -4.05 phi0 -0.0490874
tower 554 eta0 -4.05 phi0 0.0490874
tower 555 eta0 -4.05 phi0 0.147262
tower 556 eta0 -4.05 phi0 0.245437
tower 557 eta0 -4.05 phi0 0.343612
tower 558 eta0 -4.05 phi0 0.441786
tower 559 eta0 -4.05 phi0 0.539961
tower 560 eta0 -4.05 phi0 0.638136
tower 561 eta0 -4.05 phi0 0.736311
tower 562 eta0 -4.05 phi0 0.834486
tower 563 eta0 -4.05 phi0 0.93266
tower 564 eta0 -4.05 phi0 1.03084
tower 565 eta0 -4.05 phi0 1.12901
tower 566 eta0 -4.05 phi0 1.22718
tower 567 eta0 -4.05 phi0 1.32536
tower 568 eta0 -4.05 phi0 1.42353
tower 569 eta0 -4.05 phi0 1.52171
tower 570 eta0 -4.05 phi0 1.61988
tower 571 eta0 -4.05 phi0 1.71806
tower 572 eta0 -4.05 phi0 1.81623
tower 573 eta0 -4.05 phi0 1.91441
tower 574 eta0 -4.05 phi0 2.01258
tower 575 eta0 -4.05 phi0 2.11076
tower 576 eta0 -4.05 phi0 2.20893
tower 577 eta0 -4.05 phi0 2.30711
tower 578 eta0 -4.05 phi0 2.40528
tower 579 eta0 -4.05 phi0 2.50346
tower 580 eta0 -4.05 phi0 2.60163
tower 581 eta0 -4.05 phi0 2.69981
tower 582 eta0 -4.05 phi0 2.79798
tower 583 eta0 -4.05 phi0 2.89616
tower 584 eta0 -4.05 phi0 2.99433
tower 585 eta0 -4.05 phi0 3.09251
tower 586 eta0 4.05 phi0 -3.09251
tower 587 eta0 4.05 phi0 -2.99433
tower 588 eta0 4.05 phi0 -2.89616
tower 589 eta0 4.05 phi0 -2.79798
tower 590 eta0 4.05 phi0 -2.69981
tower 591 eta0 4.05 phi0 -2.60163
tower 592 eta0 4.05 phi0 -2.50346
tower 593 eta0 4.05 phi0 -2.40528
tower 594 eta0 4.05 phi0 -2.30711
tower 595 eta0 4.05 phi0 -2.20893
tower 596 eta0 4.05 phi0 -2.11076
tower 597 eta0 4.05 phi0 -2.01258
tower 598 eta0 4.05 phi0 -1.91441
tower 599 eta0 4.05 phi0 -1.81623
tower 600 eta0 4.05 phi0 -1.71806
tower 601 eta0 4.05 phi0 -1.61988
tower 602 eta0 4.05 phi0 -1.52171
tower 603 eta0 4.05 phi0 -1.42353
tower 604 eta0 4.05 phi0 -1.32536
tower 605 eta0 4.05 phi0 -1.22718
tower 606 eta0 4.05 phi0 -1.12901
tower 607 eta0 4.05 phi0 -1.03084
tower 608 eta0 4.05 phi0 -0.93266
tower 609 eta0 4.05 phi0 -0.834486
tower 610 eta0 4.05 phi0 -0.736311
tower 611 eta0 4.05 phi0 -0.638136
tower 612 eta0 4.05 phi0 -0.539961
tower 613 eta0 4.05 phi0 -0.441786
tower 614 eta0 4.05 phi0 -0.343612
tower 615 eta0 4.05 phi0 -0.245437
tower 616 eta0 4.05 phi0 -0.147262
tower 617 eta0 4.05 phi0 -0.0490874
tower 618 eta0 4.05 phi0 0.0490874
tower 619 eta0 4.05 phi0 0.147262
tower 620 eta0 4.05 phi0 0.245437
tower 621 eta0 4.05 phi0 0.343612
tower 622 eta0 4.05 phi0 0.441786
tower 623 eta0 4.05 phi0 0.539961
tower 624 eta0 4.05 phi0 0.638136
tower 625 eta0 4.05 phi0 0.736311
tower 626 eta0 4.05 phi0 0.834486
tower 627 eta0 4.05 phi0 0.93266
tower 628 eta0 4.05 phi0 1.03084
tower 629 eta0 4.05 phi0 1.12901
tower 630 eta0 4.05 phi0 1.22718
tower 631 eta0 4.05 phi0 1.32536
tower 632 eta0 4.05 phi0 1.42353
tower 633 eta0 4.05 phi0 1.52171
tower 634 eta0 4.05 phi0 1.61988
tower 635 eta0 4.05 phi0 1.71806
tower 636 eta0 4.05 phi0 1.81623
tower 637 eta0 4.05 phi0 1.91441
tower 638 eta0 4.05 phi0 2.01258
tower 639 eta0 4.05 phi0 2.11076
tower 640 eta0 4.05 phi0 2.20893
tower 641 eta0 4.05 phi0 2.30711
tower 642 eta0 4.05 phi0 2.40528
tower 643 eta0 4.05 phi0 2.50346
tower 644 eta0 4.05 phi0 2.60163
tower 645 eta0 4.05 phi0 2.69981
tower 646 eta0 4.05 phi0 2.79798
tower 647 eta0 4.05 phi0 2.89616
tower 648 eta0 4.05 phi0 2.99433
tower 649 eta0 4.05 phi0 3.09251
tower 650 eta0 4.15 phi0 -3.09251
tower 651 eta0 4.15 phi0 -2.99433
tower 652 eta0 4.15 phi0 -2.89616
tower 653 eta0 4.15 phi0 -2.79798
tower 654 eta0 4.15 phi0 -2.69981
tower 655 eta0 4.15 phi0 -2.60163
tower 656 eta0 4.15 phi0 -2.50346
tower 657 eta0 4.15 phi0 -2.40528
tower 658 eta0 4.15 phi0 -2.30711
tower 659 eta0 4.15 phi0 -2.20893
tower 660 eta0 4.15 phi0 -2.11076
tower 661 eta0 4.15 phi0 -2.01258
tower 662 eta0 4.15 phi0 -1.91441
tower 663 eta0 4.15 phi0 -1.81623
tower 664 eta0 4.15 phi0 -1.71806
tower 665 eta0 4.15 phi0 -1.61988
tower 666 eta0 4.15 phi0 -1.52171
tower 667 eta0 4.15 phi0 -1.42353
tower 668 eta0 4.15 phi0 -1.32536
tower 669 eta0 4.15 phi0 -1.22718
tower 670 eta0 4.15 phi0 -1.12901
tower 671 eta0 4.15 phi0 -1.03084
tower 672 eta0 4.15 phi0 -0.93266
tower 673 eta0 4.15 phi0 -0.834486
tower 674 eta0 4.15 phi0 -0.736311
tower 675 eta0 4.15 phi0 -0.638136
tower 676 eta0 4.15 phi0 -0.539961
tower 677 eta0 4.15 phi0 -0.441786
tower 678 eta0 4.15 phi0 -0.343612
tower 679 eta0 4.15 phi0 -0.245437
tower 680 eta0 4.15 phi0 -0.147262
tower 681 eta0 4.15 phi0 -0.0490874
tower 682 eta0 4.15 phi0 0.0490874
tower 683 eta0 4.15 phi0 0.147262
tower 684 eta0 4.15 phi0 0.245437
tower 685 eta0 4.15 phi0 0.343612
tower 686 eta0 4.15 phi0 0.441786
tower 687 eta0 4.15 phi0 0.539961
tower 688 eta0 4.15 phi0 0.638136
tower 689 eta0 4.15 phi0 0.736311
tower 690 eta0 4.15 phi0 0.834486
tower 691 eta0 4.15 phi0 0.93266
tower 692 eta0 4.15 phi0 1.03084
tower 693 eta0 4.15 phi0 1.12901
tower 694 eta0 4.15 phi0 1.22718
tower 695 eta0 4.15 phi0 1.32536
tower 696 eta0 4.15 phi0 1.42353
tower 697 eta0 4.15 phi0 1.52171
tower 698 eta0 4.15 phi0 1.61988
tower 699 eta0 4.15 phi0 1.71806
tower 700 eta0 4.15 phi0 1.81623
tower 701 eta0 4.15 phi0 1.91441
tower 702 eta0 4.15 phi0 2.01258
tower 703 eta0 4.15 phi0 2.11076
tower 704 eta0 4.15 phi0 2.20893
tower 705 eta0 4.15 phi0 2.30711
tower 706 eta0 4.15 phi0 2.40528
tower 707 eta0 4.15 phi0 2.50346
tower 708 eta0 4.15 phi0 2.60163
tower 709 eta0 4.15 phi0 2.69981
tower 710 eta0 4.15 phi0 2.79798
tower 711 eta0 4.15 phi0 2.89616
tower 712 eta0 4.15 phi0 2.99433
tower 713 eta0 4.15 phi0 3.09251
tower 714 eta0 4.25 phi0 -3.09251
tower 715 eta0 4.25 phi0 -2.99433
tower 716 eta0 4.25 phi0 -2.89616
tower 717 eta0 4.25 phi0 -2.79798
tower 718 eta0 4.25 phi0 -2.69981
tower 719 eta0 4.25 phi0 -2.60163
tower 720 eta0 4.25 phi0 -2.50346
tower 721 eta0 4.25 phi0 -2.40528
tower 722 eta0 4.25 phi0 -2.30711
tower 723 eta0 4.25 phi0 -2.20893
tower 724 eta0 4.25 phi0 -2.11076
tower 725 eta0 4.25 phi0 -2.01258
tower 726 eta0 4.25 phi0 -1.91441
tower 727 eta0 4.25 phi0 -1.81623
tower 728 eta0 4.25 phi0 -1.71806
tower 729 eta0 4.25 phi0 -1.61988
tower 730 eta0 4.25 phi0 -1.52171
tower 731 eta0 4.25 phi0 -1.42353
tower 732 eta0 4.25 phi0 -1.32536
tower 733 eta0 4.25 phi0 -1.22718
tower 734 eta0 4.25 phi0 -1.12901
tower 735 eta0 4.25 phi0 -1.03084
tower 736 eta0 4.25 phi0 -0.93266
tower 737 eta0 4.25 phi0 -0.834486
tower 738 eta0 4.25 phi0 -0.736311
tower 739 eta0 4.25 phi0 -0.638136
tower 740 eta0 4.25 phi0 -0.539961
tower 741 eta0 4.25 phi0 -0.441786
tower 742 eta0 4.25 phi0 -0.343612
tower 743 eta0 4.25 phi0 -0.245437
tower 744 eta0 4.25 phi0 -0.147262
tower 745 eta0 4.25 phi0 -0.0490874
tower 746 eta0 4.25 phi0 0.0490874
tower 747 eta0 4.25 phi0 0.147262
tower 748 eta0 4.25 phi0 0.245437
tower 749 eta0 4.25 phi0 0.343612
tower 750 eta0 4.25 phi0 0.441786
tower 751 eta0 4.25 phi0 0.539961
tower 752 eta0 4.25 phi0 0.638136
tower 753 eta0 4.25 phi0 0.736311
tower 754 eta0 4.25 phi0 0.834486
tower 755 eta0 4.25 phi0 0.93266
tower 756 eta0 4.25 phi0 1.03084
tower 757 eta0 4.25 phi0 1.12901
tower 758 eta0 4.25 phi0 1.22718
tower 759 eta0 4.25 phi0 1.32536
tower 760 eta0 4.25 phi0 1.42353
tower 761 eta0 4.25 phi0 1.52171
tower 762 eta0 4.25 phi0 1.61988
tower 763 eta0 4.25 phi0 1.71806
tower 764 eta0 4.25 phi0 1.81623
tower 765 eta0 4.25 phi0 1.91441
tower 766 eta0 4.25 phi0 2.01258
tower 767 eta0 4.25 phi0 2.11076
tower 768 eta0 4.25 phi0 2.20893
tower 769 eta0 4.25 phi0 2.30711
tower 770 eta0 4.25 phi0 2.40528
tower 771 eta0 4.25 phi0 2.50346
tower 772 eta0 4.25 phi0 2.60163
tower 773 eta0 4.25 phi0 2.69981
tower 774 eta0 4.25 phi0 2.79798
tower 775 eta0 4.25 phi0 2.89616
tower 776 eta0 4.25 phi0 2.99433
tower 777 eta0 4.25 phi0 3.09251
tower 778 eta0 4.35 phi0 -3.09251
tower 779 eta0 4.35 phi0 -2.99433
tower 780 eta0 4.35 phi0 -2.89616
tower 781 eta0 4.35 phi0 -2.79798
tower 782 eta0 4.35 phi0 -2.69981
tower 783 eta0 4.35 phi0 -2.60163
tower 784 eta0 4.35 phi0 -2.50346
tower 785 eta0 4.35 phi0 -2.40528
tower 786 eta0 4.35 phi0 -2.30711
tower 787 eta0 4.35 phi0 -2.20893
tower 788 eta0 4.35 phi0 -2.11076
tower 789 eta0 4.35 phi0 -2.01258
tower 790 eta0 4.35 phi0 -1.91441
tower 791 eta0 4.35 phi0 -1.81623
tower 792 eta0 4.35 phi0 -1.71806
tower 793 eta0 4.35 phi0 -1.61988
tower 794 eta0 4.35 phi0 -1.52171
tower 795 eta0 4.35 phi0 -1.42353
tower 796 eta0 4.35 phi0 -1.32536
tower 797 eta0 4.35 phi0 -1.22718
tower 798 eta0 4.35 phi0 -1.12901
tower 799 eta0 4.35 phi0 -1.03084
tower 800 eta0 4.35 phi0 -0.93266
tower 801 eta0 4.35 phi0 -0.834486
tower 802 eta0 4.35 phi0 -0.736311
tower 803 eta0 4.35 phi0 -0.638136
tower 804 eta0 4.35 phi0 -0.539961
tower 805 eta0 4.35 phi0 -0.441786
tower 806 eta0 4.35 phi0 -0.343612
tower 807 eta0 4.35 phi0 -0.245437
tower 808 eta0 4.35 phi0 -0.147262
tower 809 eta0 4.35 phi0 -0.0490874
tower 810 eta0 4.35 phi0 0.0490874
tower 811 eta0 4.35 phi0 0.147262
tower 812 eta0 4.35 phi0 0.245437
tower 813 eta0 4.35 phi0 0.343612
tower 814 eta0 4.35 phi0 0.441786
tower 815 eta0 4.35 phi0 0.539961
tower 816 eta0 4.35 phi0 0.638136
tower 817 eta0 4.35 phi0 0.736311
tower 818 eta0 4.35 phi0 0.834486
tower 819 eta0 4.35 phi0 0.93266
tower 820 eta0 4.35 phi0 1.03084
tower 821 eta0 4.35 phi0 1.12901
tower 822 eta0 4.35 phi0 1.22718
tower 823 eta0 4.35 phi0 1.32536
tower 824 eta0 4.35 phi0 1.42353
tower 825 eta0 4.35 phi0 1.52171
tower 826 eta0 4.35 phi0 1.61988
tower 827 eta0 4.35 phi0 1.71806
tower 828 eta0 4.35 phi0 1.81623
tower 829 eta0 4.35 phi0 1.91441
tower 830 eta0 4.35 phi0 2.01258
tower 831 eta0 4.35 phi0 2.11076
tower 832 eta0 4.35 phi0 2.20893
tower 833 eta0 4.35 phi0 2.30711
tower 834 eta0 4.35 phi0 2.40528
tower 835 eta0 4.35 phi0 2.50346
tower 836 eta0 4.35 phi0 2.60163
tower 837 eta0 4.35 phi0 2.69981
tower 838 eta0 4.35 phi0 2.79798
tower 839 eta0 4.35 phi0 2.89616
tower 840 eta0 4.35 phi0 2.99433
tower 841 eta0 4.35 phi0 3.09251
tower 842 eta0 4.45 phi0 -3.09251
tower 843 eta0 4.45 phi0 -2.99433
tower 844 eta0 4.45 phi0 -2.89616
tower 845 eta0 4.45 phi0 -2.79798
tower 846 eta0 4.45 phi0 -2.69981
tower 847 eta0 4.45 phi0 -2.60163
tower 848 eta0 4.45 phi0 -2.50346
tower 849 eta0 4.45 phi0 -2.40528
tower 850 eta0 4.45 phi0 -2.30711
tower 851 eta0 4.45 phi0 -2.20893
tower 852 eta0 4.45 phi0 -2.11076
tower 853 eta0 4.45 phi0 -2.01258
tower 854 eta0 4.45 phi0 -1.91441
tower 855 eta0 4.45 phi0 -1.81623
tower 856 eta0 4.45 phi0 -1.71806
tower 857 eta0 4.45 phi0 -1.61988
tower 858 eta0 4.45 phi0 -1.52171
tower 859 eta0 4.45 phi0 -1.42353
tower 860 eta0 4.45 phi0 -1.32536
tower 861 eta0 4.45 phi0 -1.22718
tower 862 eta0 4.45 phi0 -1.12901
tower 863 eta0 4.45 phi0 -1.03084
tower 864 eta0 4.45 phi0 -0.93266
tower 865 eta0 4.45 phi0 -0.834486
tower 866 eta0 4.45 phi0 -0.736311
tower 867 eta0 4.45 phi0 -0.638136
tower 868 eta0 4.45 phi0 -0.539961
tower 869 eta0 4.45 phi0 -0.441786
tower 870 eta0 4.45 phi0 -0.343612
tower 871 eta0 4.45 phi0 -0.245437
tower 872 eta0 4.45 phi0 -0.147262
tower 873 eta0 4.45 phi0 -0.0490874
tower 874 eta0 4.45 phi0 0.0490874
tower 875 eta0 4.45 phi0 0.147262
tower 876 eta0 4.45 phi0 0.245437
tower 877 eta0 4.45 phi0 0.343612
tower 878 eta0 4.45 phi0 0.441786
tower 879 eta0 4.45 phi0 0.539961
tower 880 eta0 4.45 phi0 0.638136
tower 881 eta0 4.45 phi0 0.736311
tower 882 eta0 4.45 phi0 0.834486
tower 883 eta0 4.45 phi0 0.93266
tower 884 eta0 4.45 phi0 1.03084
tower 885 eta0 4.45 phi0 1.12901
tower 886 eta0 4.45 phi0 1.22718
tower 887 eta0 4.45 phi0 1.32536
tower 888 eta0 4.45 phi0 1.42353
tower 889 eta0 4.45 phi0 1.52171
tower 890 eta0 4.45 phi0 1.61988
tower 891 eta0 4.45 phi0 1.71806
tower 892 eta0 4.45 phi0 1.81623
tower 893 eta0 4.45 phi0 1.91441
tower 894 eta0 4.45 phi0 2.01258
tower 895 eta0 4.45 phi0 2.11076
tower 896 eta0 4.45 phi0 2.20893
tower 897 eta0 4.45 phi0 2.30711
tower 898 eta0 4.45 phi0 2.40528
tower 899 eta0 4.45 phi0 2.50346
tower 900 eta0 4.45 phi0 2.60163
tower 901 eta0 4.45 phi0 2.69981
tower 902 eta0 4.45 phi0 2.79798
tower 903 eta0 4.45 phi0 2.89616
tower 904 eta0 4.45 phi0 2.99433
tower 905 eta0 4.45 phi0 3.09251
tower 906 eta0 4.55 phi0 -3.09251
tower 907 eta0 4.55 phi0 -2.99433
tower 908 eta0 4.55 phi0 -2.89616
tower 909 eta0 4.55 phi0 -2.79798
tower 910 eta0 4.55 phi0 -2.69981
tower 911 eta0 4.55 phi0 -2.60163
tower 912 eta0 4.55 phi0 -2.50346
tower 913 eta0 4.55 phi0 -2.40528
tower 914 eta0 4.55 phi0 -2.30711
tower 915 eta0 4.55 phi0 -2.20893
tower 916 eta0 4.55 phi0 -2.11076
tower 917 eta0 4.55 phi0 -2.01258
tower 918 eta0 4.55 phi0 -1.91441
tower 919 eta0 4.55 phi0 -1.81623
tower 920 eta0 4.55 phi0 -1.71806
tower 921 eta0 4.55 phi0 -1.61988
tower 922 eta0 4.55 phi0 -1.52171
tower 923 eta0 4.55 phi0 -1.42353
tower 924 eta0 4.55 phi0 -1.32536
tower 925 eta0 4.55 phi0 -1.22718
tower 926 eta0 4.55 phi0 -1.12901
tower 927 eta0 4.55 phi0 -1.03084
tower 928 eta0 4.55 phi0 -0.93266
tower 929 eta0 4.55 phi0 -0.834486
tower 930 eta0 4.55 phi0 -0.736311
tower 931 eta0 4.55 phi0 -0.638136
tower 932 eta0 4.55 phi0 -0.539961
tower 933 eta0 4.55 phi0 -0.441786
tower 934 eta0 4.55 phi0 -0.343612
tower 935 eta0 4.55 phi0 -0.245437
tower 936 eta0 4.55 phi0 -0.147262
tower 937 eta0 4.55 phi0 -0.0490874
tower 938 eta0 4.55 phi0 0.0490874
tower 939 eta0 4.55 phi0 0.147262
tower 940 eta0 4.55 phi0 0.245437
tower 941 eta0 4.55 phi0 0.343612
tower 942 eta0 4.55 phi0 0.441786
tower 943 eta0 4.55 phi0 0.539961
tower 944 eta0 4.55 phi0 0.638136
tower 945 eta0 4.55 phi0 0.736311
tower 946 eta0 4.55 phi0 0.834486
tower 947 eta0 4.55 phi0 0.93266
tower 948 eta0 4.55 phi0 1.03084
tower 949 eta0 4.55 phi0 1.12901
tower 950 eta0 4.55 phi0 1.22718
tower 951 eta0 4.55 phi0 1.32536
tower 952 eta0 4.55 phi0 1.42353
tower 953 eta0 4.55 phi0 1.52171
tower 954 eta0 4.55 phi0 1.61988
tower 955 eta0 4.55 phi0 1.71806
tower 956 eta0 4.55 phi0 1.81623
tower 957 eta0 4.55 phi0 1.91441
tower 958 eta0 4.55 phi0 2.01258
tower 959 eta0 4.55 phi0 2.11076
tower 960 eta0 4.55 phi0 2.20893
tower 961 eta0 4.55 phi0 2.30711
tower 962 eta0 4.55 phi0 2.40528
tower 963 eta0 4.55 phi0 2.50346
tower 964 eta0 4.55 phi0 2.60163
tower 965 eta0 4.55 phi0 2.69981
tower 966 eta0 4.55 phi0 2.79798
tower 967 eta0 4.55 phi0 2.89616
tower 968 eta0 4.55 phi0 2.99433
tower 969 eta0 4.55 phi0 3.09251
tower 970 eta0 4.65 phi0 -3.09251
tower 971 eta0 4.65 phi0 -2.99433
tower 972 eta0 4.65 phi0 -2.89616
tower 973 eta0 4.65 phi0 -2.79798
tower 974 eta0 4.65 phi0 -2.69981
tower 975 eta0 4.65 phi0 -2.60163
tower 976 eta0 4.65 phi0 -2.50346
tower 977 eta0 4.65 phi0 -2.40528
tower 978 eta0 4.65 phi0 -2.30711
tower 979 eta0 4.65 phi0 -2.20893
tower 980 eta0 4.65 phi0 -2.11076
tower 981 eta0 4.65 phi0 -2.01258
tower 982 eta0 4.65 phi0 -1.91441
tower 983 eta0 4.65 phi0 -1.81623
tower 984 eta0 4.65 phi0 -1.71806
tower 985 eta0 4.65 phi0 -1.61988
tower 986 eta0 4.65 phi0 -1.52171
tower 987 eta0 4.65 phi0 -1.42353
tower 988 eta0 4.65 phi0 -1.32536
tower 989 eta0 4.65 phi0 -1.22718
tower 990 eta0 4.65 phi0 -1.12901
tower 991 eta0 4.65 phi0 -1.03084
tower 992 eta0 4.65 phi0 -0.93266
tower 993 eta0 4.65 phi0 -0.834486
tower 994 eta0 4.65 phi0 -0.736311
tower 995 eta0 4.65 phi0 -0.638136
tower 996 eta0 4.65 phi0 -0.539961
tower 997 eta0 4.65 phi0 -0.441786
tower 998 eta0 4.65 phi0 -0.343612
tower 999 eta0 4.65 phi0 -0.245437
tower 1000 eta0 4.65 phi0 -0.147262
tower 1001 eta0 4.65 phi0 -0.0490874
tower 1002 eta0 4.65 phi0 0.0490874
tower 1003 eta0 4.65 phi0 0.147262
tower 1004 eta0 4.65 phi0 0.245437
tower 1005 eta0 4.65 phi0 0.343612
tower 1006 eta0 4.65 phi0 0.441786
tower 1007 eta0 4.65 phi0 0.539961
tower 1008 eta0 4.65 phi0 0.638136
tower 1009 eta0 4.65 phi0 0.736311
tower 1010 eta0 4.65 phi0 0.834486
tower 1011 eta0 4.65 phi0 0.93266
tower 1012 eta0 4.65 phi0 1.03084
tower 1013 eta0 4.65 phi0 1.12901
tower 1014 eta0 4.65 phi0 1.22718
tower 1015 eta0 4.65 phi0 1.32536
tower 1016 eta0 4.65 phi0 1.42353
tower 1017 eta0 4.65 phi0 1.52171
tower 1018 eta0 4.65 phi0 1.61988
tower 1019 eta0 4.65 phi0 1.71806
tower 1020 eta0 4.65 phi0 1.81623
tower 1021 eta0 4.65 phi0 1.91441
tower 1022 eta0 4.65 phi0 2.01258
tower 1023 eta0 4.65 phi0 2.11076
tower 1024 eta0 4.65 phi0 2.20893
tower 1025 eta0 4.65 phi0 2.30711
tower 1026 eta0 4.65 phi0 2.40528
tower 1027 eta0 4.65 phi0 2.50346
tower 1028 eta0 4.65 phi0 2.60163
tower 1029 eta0 4.65 phi0 2.69981
tower 1030 eta0 4.65 phi0 2.79798
tower 1031 eta0 4.65 phi0 2.89616
tower 1032 eta0 4.65 phi0 2.99433
tower 1033 eta0 4.65 phi0 3.09251
tower 1034 eta0 4.75 phi0 -3.09251
tower 1035 eta0 4.75 phi0 -2.99433
tower 1036 eta0 4.75 phi0 -2.89616
tower 1037 eta0 4.75 phi0 -2.79798
tower 1038 eta0 4.75 phi0 -2.69981
tower 1039 eta0 4.75 phi0 -2.60163
tower 1040 eta0 4.75 phi0 -2.50346
tower 1041 eta0 4.75 phi0 -2.40528
tower 1042 eta0 4.75 phi0 -2.30711
tower 1043 eta0 4.75 phi0 -2.20893
tower 1044 eta0 4.75 phi0 -2.11076
tower 1045 eta0 4.75 phi0 -2.01258
tower 1046 eta0 4.75 phi0 -1.91441
tower 1047 eta0 4.75 phi0 -1.81623
tower 1048 eta0 4.75 phi0 -1.71806
tower 1049 eta0 4.75 phi0 -1.61988
tower 1050 eta0 4.75 phi0 -1.52171
tower 1051 eta0 4.75 phi0 -1.42353
tower 1052 eta0 4.75 phi0 -1.32536
tower 1053 eta0 4.75 phi0 -1.22718
tower 1054 eta0 4.75 phi0 -1.12901
tower 1055 eta0 4.75 phi0 -1.03084
tower 1056 eta0 4.75 phi0 -0.93266
tower 1057 eta0 4.75 phi0 -0.834486
tower 1058 eta0 4.75 phi0 -0.736311
tower 1059 eta0 4.75 phi0 -0.638136
tower 1060 eta0 4.75 phi0 -0.539961
tower 1061 eta0 4.75 phi0 -0.441786
tower 1062 eta0 4.75 phi0 -0.343612
tower 1063 eta0 4.75 phi0 -0.245437
tower 1064 eta0 4.75 phi0 -0.147262
tower 1065 eta0 4.75 phi0 -0.0490874
tower 1066 eta0 4.75 phi0 0.0490874
tower 1067 eta0 4.75 phi0 0.147262
tower 1068 eta0 4.75 phi0 0.245437
tower 1069 eta0 4.75 phi0 0.343612
tower 1070 eta0 4.75 phi0 0.441786
tower 1071 eta0 4.75 phi0 0.539961
tower 1072 eta0 4.75 phi0 0.638136
tower 1073 eta0 4.75 phi0 0.736311
tower 1074 eta0 4.75 phi0 0.834486
tower 1075 eta0 4.75 phi0 0.93266
tower 1076 eta0 4.75 phi0 1.03084
tower 1077 eta0 4.75 phi0 1.12901
tower 1078 eta0 4.75 phi0 1.22718
tower 1079 eta0 4.75 phi0 1.32536
tower 1080 eta0 4.75 phi0 1.42353
tower 1081 eta0 4.75 phi0 1.52171
tower 1082 eta0 4.75 phi0 1.61988
tower 1083 eta0 4.75 phi0 1.71806
tower 1084 eta0 4.75 phi0 1.81623
tower 1085 eta0 4.75 phi0 1.91441
tower 1086 eta0 4.75 phi0 2.01258
tower 1087 eta0 4.75 phi0 2.11076
tower 1088 eta0 4.75 phi0 2.20893
tower 1089 eta0 4.75 phi0 2.30711
tower 1090 eta0 4.75 phi0 2.40528
tower 1091 eta0 4.75 phi0 2.50346
tower 1092 eta0 4.75 phi0 2.60163
tower 1093 eta0 4.75 phi0 2.69981
tower 1094 eta0 4.75 phi0 2.79798
tower 1095 eta0 4.75 phi0 2.89616
tower 1096 eta0 4.75 phi0 2.99433
tower 1097 eta0 4.75 phi0 3.09251
tower 1098 eta0 4.85 phi0 -3.09251
tower 1099 eta0 4.85 phi0 -2.99433
tower 1100 eta0 4.85 phi0 -2.89616
tower 1101 eta0 4.85 phi0 -2.79798
tower 1102 eta0 4.85 phi0 -2.69981
tower 1103 eta0 4.85 phi0 -2.60163
tower 1104 eta0 4.85 phi0 -2.50346
tower 1105 eta0 4.85 phi0 -2.40528
tower 1106 eta0 4.85 phi0 -2.30711
tower 1107 eta0 4.85 phi0 -2.20893
tower 1108 eta0 4.85 phi0 -2.11076
tower 1109 eta0 4.85 phi0 -2.01258
tower 1110 eta0 4.85 phi0 -1.91441
tower 1111 eta0 4.85 phi0 -1.52171
tower 1112 eta0 4.85 phi0 -1.22718
tower 1113 eta0 4.85 phi0 -1.12901
tower 1114 eta0 4.85 phi0 -1.03084
tower 1115 eta0 4.85 phi0 -0.93266
tower 1116 eta0 4.85 phi0 -0.834486
tower 1117 eta0 4.85 phi0 -0.736311
tower 1118 eta0 4.85 phi0 -0.638136
tower 1119 eta0 4.85 phi0 -0.539961
tower 1120 eta0 4.85 phi0 -0.441786
tower 1121 eta0 4.85 phi0 -0.343612
tower 1122 eta0 4.85 phi0 -0.245437
tower 1123 eta0 4.85 phi0 -0.147262
tower 1124 eta0 4.85 phi0 -0.0490874
tower 1125 eta0 4.85 phi0 0.0490874
tower 1126 eta0 4.85 phi0 0.147262
tower 1127 eta0 4.85 phi0 0.245437
tower 1128 eta0 4.85 phi0 0.343612
tower 1129 eta0 4.85 phi0 0.441786
tower 1130 eta0 4.85 phi0 0.539961
tower 1131 eta0 4.85 phi0 0.638136
tower 1132 eta0 4.85 phi0 0.736311
tower 1133 eta0 4.85 phi0 0.834486
tower 1134 eta0 4.85 phi0 0.93266
tower 1135 eta0 4.85 phi0 1.03084
tower 1136 eta0 4.85 phi0 1.12901
tower 1137 eta0 4.85 phi0 1.22718
tower 1138 eta0 4.85 phi0 1.32536
tower 1139 eta0 4.85 phi0 1.42353
tower 1140 eta0 4.85 phi0 1.52171
tower 1141 eta0 4.85 phi0 1.61988
tower 1142 eta0 4.85 phi0 1.71806
tower 1143 eta0 4.85 phi0 1.81623
tower 1144 eta0 4.85 phi0 1.91441
tower 1145 eta0 4.85 phi0 2.01258
tower 1146 eta0 4.85 phi0 2.11076
tower 1147 eta0 4.85 phi0 2.20893
tower 1148 eta0 4.85 phi0 2.30711
tower 1149 eta0 4.85 phi0 2.40528
tower 1150 eta0 4.85 phi0 2.50346
tower 1151 eta0 4.85 phi0 2.60163
tower 1152 eta0 4.85 phi0 2.69981
tower 1153 eta0 4.85 phi0 2.79798
tower 1154 eta0 4.85 phi0 2.89616
tower 1155 eta0 4.85 phi0 2.99433
tower 1156 eta0 4.85 phi0 3.09251
tower 1157 eta0 4.95 phi0 -2.50346
tower 1158 eta0 4.95 phi0 -1.12901
tower 1159 eta0 4.95 phi0 -0.736311
tower 1160 eta0 4.95 phi0 0.441786
tower 1161 eta0 4.95 phi0 0.539961
tower 1162 eta0 4.95 phi0 0.638136
tower 1163 eta0 4.95 phi0 0.736311
tower 1164 eta0 4.95 phi0 1.03084
tower 1165 eta0 4.95 phi0 1.12901
tower 1166 eta0 4.95 phi0 1.91441
tower 1167 eta0 4.95 phi0 2.01258
tower 1168 eta0 4.95 phi0 2.11076
tower 1169 eta0 4.95 phi0 2.30711
tower 1170 eta0 4.95 phi0 2.40528
